%YAML 1.1
%TAG !u! tag:unity3d.com,2011:
--- !u!78 &1
TagManager:
  serializedVersion: 2
  tags:
  - Customer
  - SpawnPoint
  - SpawnPoolMorning
  - SpawnPoolAfternoon
  - SpawnPoolNight
  - SupportSpawn
  - Support
  layers:
  - Default
  - TransparentFX
  - Ignore Raycast
  - 
  - Water
  - UI
  - 
  - 
  - test1
  - test2
  - 
  - 
  - 
  - 
  - 
  - 
  - 
  - 
  - 
  - 
  - 
  - 
  - 
  - 
  - 
  - 
  - 
  - 
  - 
  - 
  - 
  - 
  m_SortingLayers:
  - name: Default
    uniqueID: 0
    locked: 0
  - name: 1
    uniqueID: 3761907953
    locked: 0
  - name: 1a
    uniqueID: 2232917239
    locked: 0
  - name: 2
    uniqueID: 3728198055
    locked: 0
  - name: 3
    uniqueID: 1464500607
    locked: 0
  - name: 4
    uniqueID: 1014955041
    locked: 0
  - name: 5
    uniqueID: 1309546871
    locked: 0
  - name: 6
    uniqueID: 2572597319
    locked: 0
  - name: 7
    uniqueID: 35560197
    locked: 0
  - name: 8
    uniqueID: 3422433077
    locked: 0
  - name: 9
    uniqueID: 1394738275
    locked: 0
  - name: 10
    uniqueID: 3889739183
    locked: 0
  - name: 11
    uniqueID: 366349641
    locked: 0
  - name: 12
    uniqueID: 890927071
    locked: 0
  - name: 13
    uniqueID: 1893831117
    locked: 0
  - name: 14
    uniqueID: 3517505297
    locked: 0
